{
  "data":[
    {
      "id":"bf22f685-c036-49d9-b3ee-d5e6092f472e",
      "type":"requirements",
      "attributes":{
        "identity_type":"Any",
        "personal_area_level":"WorldWide",
        "business_area_level":"WorldWide",
        "address_area_level":"City",
        "personal_proof_qty":1,
        "business_proof_qty":1,
        "address_proof_qty":0,
        "personal_mandatory_fields":null,
        "business_mandatory_fields":null,
        "service_description_required":false,
        "restriction_message":"restriction_message"
      },
      "relationships":{
        "country":{
          "links":{
            "self":"https://sandbox-api.didww.com/v3/requirements/bf22f685-c036-49d9-b3ee-d5e6092f472e/relationships/country",
            "related":"https://sandbox-api.didww.com/v3/requirements/bf22f685-c036-49d9-b3ee-d5e6092f472e/country"
          }
        },
        "did_group_type":{
          "links":{
            "self":"https://sandbox-api.didww.com/v3/requirements/bf22f685-c036-49d9-b3ee-d5e6092f472e/relationships/did_group_type",
            "related":"https://sandbox-api.didww.com/v3/requirements/bf22f685-c036-49d9-b3ee-d5e6092f472e/did_group_type"
          }
        },
        "personal_permanent_document":{
          "links":{
            "self":"https://sandbox-api.didww.com/v3/requirements/bf22f685-c036-49d9-b3ee-d5e6092f472e/relationships/personal_permanent_document",
            "related":"https://sandbox-api.didww.com/v3/requirements/bf22f685-c036-49d9-b3ee-d5e6092f472e/personal_permanent_document"
          }
        },
        "business_permanent_document":{
          "links":{
            "self":"https://sandbox-api.didww.com/v3/requirements/bf22f685-c036-49d9-b3ee-d5e6092f472e/relationships/business_permanent_document",
            "related":"https://sandbox-api.didww.com/v3/requirements/bf22f685-c036-49d9-b3ee-d5e6092f472e/business_permanent_document"
          }
        },
        "personal_onetime_document":{
          "links":{
            "self":"https://sandbox-api.didww.com/v3/requirements/bf22f685-c036-49d9-b3ee-d5e6092f472e/relationships/personal_onetime_document",
            "related":"https://sandbox-api.didww.com/v3/requirements/bf22f685-c036-49d9-b3ee-d5e6092f472e/personal_onetime_document"
          }
        },
        "business_onetime_document":{
          "links":{
            "self":"https://sandbox-api.didww.com/v3/requirements/bf22f685-c036-49d9-b3ee-d5e6092f472e/relationships/business_onetime_document",
            "related":"https://sandbox-api.didww.com/v3/requirements/bf22f685-c036-49d9-b3ee-d5e6092f472e/business_onetime_document"
          }
        },
        "personal_proof_types":{
          "links":{
            "self":"https://sandbox-api.didww.com/v3/requirements/bf22f685-c036-49d9-b3ee-d5e6092f472e/relationships/personal_proof_types",
            "related":"https://sandbox-api.didww.com/v3/requirements/bf22f685-c036-49d9-b3ee-d5e6092f472e/personal_proof_types"
          }
        },
        "business_proof_types":{
          "links":{
            "self":"https://sandbox-api.didww.com/v3/requirements/bf22f685-c036-49d9-b3ee-d5e6092f472e/relationships/business_proof_types",
            "related":"https://sandbox-api.didww.com/v3/requirements/bf22f685-c036-49d9-b3ee-d5e6092f472e/business_proof_types"
          }
        },
        "address_proof_types":{
          "links":{
            "self":"https://sandbox-api.didww.com/v3/requirements/bf22f685-c036-49d9-b3ee-d5e6092f472e/relationships/address_proof_types",
            "related":"https://sandbox-api.didww.com/v3/requirements/bf22f685-c036-49d9-b3ee-d5e6092f472e/address_proof_types"
          }
        }
      }
    },
    {
      "id":"18189a49-bbd3-4912-943f-199cf9c4823d",
      "type":"requirements",
      "attributes":{
        "identity_type":"Any",
        "personal_area_level":"WorldWide",
        "business_area_level":"WorldWide",
        "address_area_level":"Area",
        "personal_proof_qty":1,
        "business_proof_qty":2,
        "address_proof_qty":0,
        "personal_mandatory_fields":null,
        "business_mandatory_fields":null,
        "service_description_required":false,
        "restriction_message":"restriction_message"
      },
      "relationships":{
        "country":{
          "links":{
            "self":"https://sandbox-api.didww.com/v3/requirements/18189a49-bbd3-4912-943f-199cf9c4823d/relationships/country",
            "related":"https://sandbox-api.didww.com/v3/requirements/18189a49-bbd3-4912-943f-199cf9c4823d/country"
          }
        },
        "did_group_type":{
          "links":{
            "self":"https://sandbox-api.didww.com/v3/requirements/18189a49-bbd3-4912-943f-199cf9c4823d/relationships/did_group_type",
            "related":"https://sandbox-api.didww.com/v3/requirements/18189a49-bbd3-4912-943f-199cf9c4823d/did_group_type"
          }
        },
        "personal_permanent_document":{
          "links":{
            "self":"https://sandbox-api.didww.com/v3/requirements/18189a49-bbd3-4912-943f-199cf9c4823d/relationships/personal_permanent_document",
            "related":"https://sandbox-api.didww.com/v3/requirements/18189a49-bbd3-4912-943f-199cf9c4823d/personal_permanent_document"
          }
        },
        "business_permanent_document":{
          "links":{
            "self":"https://sandbox-api.didww.com/v3/requirements/18189a49-bbd3-4912-943f-199cf9c4823d/relationships/business_permanent_document",
            "related":"https://sandbox-api.didww.com/v3/requirements/18189a49-bbd3-4912-943f-199cf9c4823d/business_permanent_document"
          }
        },
        "personal_onetime_document":{
          "links":{
            "self":"https://sandbox-api.didww.com/v3/requirements/18189a49-bbd3-4912-943f-199cf9c4823d/relationships/personal_onetime_document",
            "related":"https://sandbox-api.didww.com/v3/requirements/18189a49-bbd3-4912-943f-199cf9c4823d/personal_onetime_document"
          }
        },
        "business_onetime_document":{
          "links":{
            "self":"https://sandbox-api.didww.com/v3/requirements/18189a49-bbd3-4912-943f-199cf9c4823d/relationships/business_onetime_document",
            "related":"https://sandbox-api.didww.com/v3/requirements/18189a49-bbd3-4912-943f-199cf9c4823d/business_onetime_document"
          }
        },
        "personal_proof_types":{
          "links":{
            "self":"https://sandbox-api.didww.com/v3/requirements/18189a49-bbd3-4912-943f-199cf9c4823d/relationships/personal_proof_types",
            "related":"https://sandbox-api.didww.com/v3/requirements/18189a49-bbd3-4912-943f-199cf9c4823d/personal_proof_types"
          }
        },
        "business_proof_types":{
          "links":{
            "self":"https://sandbox-api.didww.com/v3/requirements/18189a49-bbd3-4912-943f-199cf9c4823d/relationships/business_proof_types",
            "related":"https://sandbox-api.didww.com/v3/requirements/18189a49-bbd3-4912-943f-199cf9c4823d/business_proof_types"
          }
        },
        "address_proof_types":{
          "links":{
            "self":"https://sandbox-api.didww.com/v3/requirements/18189a49-bbd3-4912-943f-199cf9c4823d/relationships/address_proof_types",
            "related":"https://sandbox-api.didww.com/v3/requirements/18189a49-bbd3-4912-943f-199cf9c4823d/address_proof_types"
          }
        }
      }
    }
  ],
  "meta":{
    "total_records":82,
    "didww_api_version":"2.0"
  },
  "links":{
    "first":"https://sandbox-api.didww.com/v3/requirements?page%5Bnumber%5D=1&page%5Bsize%5D=10",
    "next":"https://sandbox-api.didww.com/v3/requirements?page%5Bnumber%5D=2&page%5Bsize%5D=10",
    "last":"https://sandbox-api.didww.com/v3/requirements?page%5Bnumber%5D=9&page%5Bsize%5D=10"
  }
}
